<svg version="1.1" xmlns="http://www.w3.org/2000/svg" viewBox="0 0 982.9999999999998 195.5">
  <!-- svg-source:excalidraw -->
  <defs>
    <style>
      @font-face {
        font-family: "Virgil";
        src: url("https://excalidraw.com/FG_Virgil.woff2");
      }
      @font-face {
        font-family: "Cascadia";
        src: url("https://excalidraw.com/Cascadia.woff2");
      }
    </style>
  </defs>
  <rect x="0" y="0" width="982.9999999999998" height="195.5" fill="#ffffff"></rect><g stroke-opacity="0.5" fill-opacity="0.5" transform="translate(10 70.5) rotate(0 131.9999999999999 56)"><path d="M0 0 C0 0, 0 0, 0 0 M0 0 C0 0, 0 0, 0 0 M-0.3554042726429054 5.860493541558378 C1.533391339966299 5.077937517012237, 2.680760832752184 3.8024571918767536, 4.405505231352992 0.6823770794865899 M0.0906512383697679 6.2060656343150065 C0.9575574389561275 4.898815703255061, 2.0302903124126894 3.332360232784788, 5.180749339567965 0.09072472451601565 M-0.4342195308674468 13.569204090952455 C1.5377917870727376 7.92524330639764, 5.258434116950684 4.258544111628286, 11.369308766675127 -0.39791292742940176 M0.5752055675815451 11.52813132223445 C3.7546933797662847 8.095498160906544, 6.953187801065728 5.505350848473243, 10.451937261921298 0.36218110053685915 M1.7150709395715733 20.34964094022351 C7.95852677401256 10.11136130798906, 14.096942389821619 4.572351547377016, 14.034782262056549 0.012537068400995999 M-0.056069567850814295 17.626207154151672 C5.1442724709003596 14.205441671174615, 8.475599068492702 8.43570135859086, 14.773001263386984 0.5819502898422053 M-0.8883879760094668 22.584367233975886 C7.553792321653108 16.963546448145017, 12.028710172507724 9.176784426990665, 19.96955426065054 0.1509376572608474 M0.34346977921195965 23.59006952745384 C6.607761278895971 16.804258398119508, 12.595965816213301 9.746920092289754, 20.372675859646762 -0.766357196106064 M-1.9069906221191033 28.796175163004747 C6.433723099822547 23.713579185646662, 12.23471031707406 15.03336236793183, 26.66014200137219 1.6511244712409319 M-0.3650657794857963 31.050253915365985 C9.854477329647283 20.738791106541274, 17.897553393364426 10.222477264990442, 27.03026065756789 -0.3512223061162292 M-0.4614724033605775 36.58625114318107 C7.298436961055326 25.3319614192799, 15.599185349205179 15.338688790992538, 31.02663473360876 -0.6189412790105457 M-0.5693489044066986 37.27966914586847 C6.264093496071484 29.669508796206014, 14.02244849420277 21.053194612002414, 32.306134213178254 0.10043702006928967 M-1.1784280993371254 42.21789096537583 C8.490375031229291 31.675751168444393, 17.539618153610597 22.78070807399503, 36.42152621578549 0.3271493130457124 M-0.29474756851335826 42.36079435944163 C11.905267440455075 27.965393965400338, 23.14301603555157 16.32580263030048, 37.71749365404372 -0.028638523900834656 M-0.09598895162351795 47.81812853612833 C14.495611317453834 31.632807197060266, 27.525671533916668 19.008616756461517, 43.940686947289635 0.49407620805790486 M0.29624785576007895 49.48105774973415 C17.110591803740423 29.632213959660913, 32.735730264873325 9.834951446997906, 42.45557691119217 0.7475237472309715 M1.9910905391675087 55.032268816086756 C13.359485205259109 35.749798715203454, 29.565021715540734 21.03711595935357, 47.237391936546445 -0.1200329374346687 M-0.03481220055849832 54.6811195020036 C13.057038246070173 39.21022824510624, 26.976619657603738 25.088577561296376, 47.60594048718947 0.08705515211338266 M-1.6545396185388057 59.999064461790425 C14.789048102675586 43.19358409450935, 30.192699530466435 27.330534903123407, 51.833292932943166 -0.6237794127838008 M0.6179412650967748 60.92379843489866 C14.023651770353503 46.468028471188155, 26.44663168510535 30.577179383421385, 53.8656816880635 0.8138190010039814 M-1.057911704345706 67.0052487641103 C12.033149478890081 52.186297612939214, 25.758140437965217 36.7245484385085, 57.932446194905054 -0.2573168114501989 M0.36585902976327844 67.84235493889967 C23.015971686770637 40.56684661962842, 45.575402569252276 14.807361452028118, 57.76371639138014 0.9863372375514352 M0.5625826271435628 71.68716438891737 C20.212489421423157 50.52505499971305, 43.08395430019832 26.16184217294296, 63.732284721819354 -1.4925276727856627 M1.0263465579783926 72.035869716987 C21.32346949134369 48.95781991070752, 42.78658347957292 23.079074114587996, 63.37800127816726 -1.1086362029866805 M-1.1104847406457594 78.23239211775092 C18.58489990415549 60.471847404759814, 34.604079701696236 36.89335396138409, 68.23764602211132 0.942153159749104 M0.6234369148079821 80.3646225253093 C15.14721475440545 61.16623373241839, 32.349937336657376 42.49325786134293, 68.55581160099074 1.1128112480383052 M1.1613348166735875 87.03428378625915 C24.71155378757313 54.82133713226584, 52.09190219638528 29.125720525272463, 74.5717443451682 0.9615618968023227 M-0.5510460312200678 84.69837511162416 C21.024282305798653 61.02434776193958, 40.186943325437475 40.302415006394355, 74.63096341587844 -0.4746758491160108 M-1.0136055674731566 91.66713892598138 C29.081929532096964 59.65150455120949, 58.90490399379945 25.434478446082736, 80.79019844941524 0.09898244491326125 M-0.7172098400398923 90.98529785708025 C18.477397532051167 69.44330887945122, 38.28345428987036 46.51877706461653, 78.64409135039625 -0.636794300800986 M0.9978649523107634 98.54073770278856 C27.179356514900466 67.25501131436218, 54.59364157615579 32.75480693136258, 83.1920038342397 0.4059697647301448 M-0.5459302971141113 98.00025271465793 C31.67741999841777 61.602535101257985, 62.730906505089344 26.097014875108044, 85.05987083557204 0.21399107824097996 M0.9480578464221026 104.10196965755168 C31.996272596359287 70.89857195181898, 60.132290423664465 32.61879247306119, 91.13356050806681 -0.5724734872077448 M-0.6582785004053449 102.64017194983754 C26.50937079292877 72.34356696391383, 54.21626449335867 39.66695403827936, 89.98729587397168 0.08737410665854384 M-0.19725187671389932 110.03646244681002 C23.008516202379734 80.62931764317374, 48.7800941162238 51.30191902179016, 94.33964522028387 -0.8980736002521894 M-0.12494794734772796 110.21943688126774 C24.79412110586353 81.32639176300515, 47.956527993444595 54.23894919224692, 94.89690127162308 0.40878059470929884 M1.708205590271028 115.41369562076629 C31.762648836271097 77.23765447664937, 63.02670240457571 39.60749813231536, 101.71743922931606 0.7358908321361 M1.9070267260676346 114.70874165876062 C37.36000873671405 72.87327359644956, 73.21086165545414 30.706066297897507, 100.84104040609205 0.08829498604190888 M5.461281650754678 114.90746768484587 C27.648433585658758 86.88655859130594, 50.492787250308844 63.5736104269478, 104.66750053455067 -2.0955877293946727 M7.090606542359161 114.04931032485092 C33.27533141303617 86.0400349795996, 56.11117425966745 59.2494495631098, 106.17110745840651 0.514233715913953 M12.667378043209723 112.52578232170191 C38.741168512066444 87.09268745006622, 62.450797895624405 54.990256943800254, 111.89779164441295 -0.5740691283052186 M12.44296692164015 113.97653303680119 C49.702765685275345 72.72587749819652, 84.46929011966742 30.247969848766573, 110.75781518113233 -0.37792814702590505 M16.268068392023444 112.20886636698268 C40.843793866667916 88.04799485975919, 64.96951871570332 61.03848527438554, 116.07859277929964 -0.9831325737245393 M18.279369232438505 113.71173404236905 C51.47522212593847 75.95443922625218, 82.87616001066507 38.023543489861694, 117.05235810130688 -0.3572739622972918 M22.074830830621075 114.5778943522274 C48.0355863081799 87.83699550321325, 71.08489198354525 58.51434652849704, 119.9368247846075 -1.5067478997816863 M22.153143414820086 114.80464622270311 C57.51744179292399 72.1716059174955, 92.95086346390289 32.631860875778386, 121.58698543346753 -0.6020667769198838 M30.08002023338986 111.83481186308433 C67.69899867600108 70.33430676671098, 105.08266195375832 23.99579903143716, 128.35037204376175 0.9723531750626577 M27.572910212312763 113.126984450561 C51.7583766373135 83.56385273539178, 78.1267141652715 55.51320009080666, 127.47557399268015 -0.40437058474498855 M35.27089598375507 112.73751218109274 C56.11590307452861 87.95605780587131, 78.01496357702351 63.00122236375683, 133.00299568114968 -1.4727900135433032 M33.22285893998243 113.94137223209137 C70.41533277622645 71.61379782510144, 106.43998304463096 29.63363434198463, 132.47479139747264 -0.4217673880150272 M40.940594206103945 113.49965964190082 C64.4542605591578 88.28699638943434, 83.50104303902029 61.778857218242855, 137.19836133019655 1.1618095659396914 M39.67996971635696 113.89491506505178 C74.83737468724914 71.0557593280395, 112.79514226522599 28.300263481560563, 138.20437383791088 0.3915694444186357 M43.50215553386172 114.7658662770479 C65.8290756352263 88.93229119921453, 86.55142851259424 64.48994139686764, 145.17101136528956 -0.2890900008400905 M44.634291231502196 114.08812708059094 C78.03698321398049 74.44644203648852, 112.87944096133927 35.45014259127149, 142.8643483075227 0.7784485353136432 M49.79949734141567 112.51151517218217 C80.38198113620243 79.2090508103999, 111.32367063761893 45.08556002645672, 146.90039266985397 -1.1847829323434098 M49.60616297894606 114.0685044014664 C69.98202739632026 90.20896463662486, 90.92237077386673 66.62972889115589, 148.455310371374 0.24758714081860944 M53.92144151219104 115.01793710884291 C85.3529139846901 79.70662092074451, 115.27654541299233 44.09484743135266, 155.4218288682771 -0.17879239292203408 M55.1664930237544 112.89945178382683 C74.6567352156536 91.51779955712125, 94.88146006272785 67.76670303226689, 153.4956463979927 -0.9328154913088582 M58.51268667057508 113.77223392267835 C97.64818606341323 71.63335703076186, 130.8171641190815 29.70836294539025, 159.64054809398408 1.7563061489633185 M59.653980234455105 113.15385597542983 C92.75317013257444 77.46542473256073, 126.20835596325045 40.573638276116, 158.24181132744457 -0.6661514799201029 M63.58783594999301 112.44245514522777 C98.17466460505253 77.78266679236286, 126.30352499129467 43.29810129913422, 165.64265522136225 0.2287082789608661 M64.39539205111402 113.98301235742406 C103.13401950857553 70.30879500144883, 141.21144172268495 25.95491625051565, 165.40555090325756 -1.0338309522575315 M71.84236922483211 113.77742136213938 C98.48430083599831 82.42099718376946, 123.15549827276729 51.74677864534968, 169.50915963383682 0.40255727860989055 M70.42278671725904 113.1101983025671 C93.68374652785108 85.67967535293099, 118.03457379846189 57.514027317315985, 169.37417944049753 0.7736445978275128 M77.46667087851765 112.58190085495247 C103.80851809517188 85.33032770957095, 127.52649436871366 55.072692042914305, 174.62694745579506 -0.10223251644137576 M75.69379104795607 113.89959981700761 C105.05948217636097 77.75317525244671, 134.33672251235984 44.83454458847879, 174.92780205769236 0.4502556680926375 M83.45700203543682 114.61643295931525 C100.78535650032943 87.6242914030856, 125.54086532467414 64.50848873592992, 180.5028093206622 1.7652009253463063 M81.80882266173292 113.34988489850319 C111.91595359174703 76.94704425442904, 142.07798831387396 43.8789074104312, 180.4595924449079 -0.3566086103135433 M86.42952832901491 113.572504706767 C118.98328982492113 75.4977385068147, 151.90168639112966 37.590508442883234, 184.07441260282556 1.386490689621212 M87.23136774865552 113.1631301782025 C114.51404620378625 83.73938349437627, 140.40897116241604 53.64920761238, 186.6930150956721 -0.05257711463337955 M93.93129213363918 113.97237418295596 C122.83001307199302 78.32868818720844, 150.71927118120163 46.95445264714381, 192.52432918571031 -0.5507824420774341 M92.00520330225172 113.73839427886311 C112.66350959641315 88.52468695908138, 134.16003797508023 62.87295696178446, 189.90210307505077 -0.02737008871827129 M97.25424033273487 112.14424716942139 C127.85346005117745 78.43859759542565, 158.126023056297 45.230239961479896, 196.59100769370372 0.8467333658986433 M96.97467488758741 113.2406444566337 C135.2825577016931 70.51457481890897, 173.5064300726117 26.827658993332193, 196.62868025157178 -0.6612257848105685 M104.74619655068919 115.12210050181153 C124.88996760155143 89.47149240086785, 143.0672871903393 66.47956674084367, 199.38280126023102 -0.3466623549113166 M102.50191887319043 113.59432995927187 C136.0676153220424 77.61548424126426, 169.03410757753178 40.09305073192222, 200.902639065301 -0.25597382176165695 M106.62488892092745 113.62085871166562 C139.04267061280052 76.5674169327468, 169.02605157311902 40.05982408297078, 205.6889397596795 -1.9758990188590815 M107.6871401991267 113.55230866792624 C135.22848388576443 82.84490761054487, 164.28913927730565 50.33242187684758, 206.95916275976634 -1.0414618268139293 M111.63286328884637 113.6909269648547 C140.82248638219528 82.78457930190562, 166.61484007388734 53.12063546442594, 210.79355757547438 -0.8299583444053695 M112.42977557993358 113.44413003557722 C145.90026091087196 77.08902733005073, 177.3703152193112 40.17259532635504, 212.45900315003365 -0.1066287938187287 M119.1318061248427 113.9198198022497 C152.4132109111674 74.43723580048443, 184.7949736533997 38.69473339862091, 217.78666583200294 -1.7420509959019483 M117.92906641764843 114.47141382770512 C153.26335140758795 75.83800035020951, 185.75276216735733 37.332755088704474, 217.20570285463083 0.5940682749815522 M125.1968674373417 112.63378988038994 C148.18007788899212 85.05041057185986, 174.48644042216534 57.82850087668639, 222.37818016269043 -0.6144399418095787 M124.18463171483714 113.00322886295862 C158.51208767988675 74.74828794992143, 192.11390240027632 34.486520892628846, 222.36587306362375 -0.6904189892644723 M129.2715739757306 113.55236090992362 C152.11212071406555 86.48376913670901, 173.94523965349325 60.646009277330954, 230.20889294192406 -1.5186170964799857 M129.05763127752758 114.32437595159531 C155.72665655126096 83.91270413438474, 181.01112562038193 54.11614557453587, 229.18641577054026 0.4858430362008477 M132.9818569984347 112.76350429739004 C166.6656957255611 73.46783660777851, 204.81162480318216 35.919995802278834, 233.66450105312913 0.27987332162607004 M134.49104348328564 114.70431453726387 C160.81938986974126 83.9484463965998, 188.7636226638205 53.65995861138915, 232.21480154044627 -0.1653033924738736 M139.44702450484118 111.62346250343738 C171.58374289917023 77.14920382994069, 203.64020340032437 39.70892125145741, 236.53051909170233 1.9759677283795867 M140.22688751313916 114.39073605522184 C172.53419803682846 74.89572716394443, 206.00564308821868 36.29231622802877, 237.3602327128791 1.0821755526917372 M144.09378900337532 115.73192568460497 C179.40310245820103 74.83927563207237, 216.3696252062327 33.36769024368101, 242.08660227804046 -1.5732880853484517 M144.02650111965403 113.67849057411793 C166.80755663234214 88.5568282438368, 188.47354518586758 62.62215757419833, 244.3942163148762 -0.736115987821961 M149.9672397434244 111.83185505154098 C175.54015218899718 82.33582816352299, 201.5855915354336 53.74721682980889, 247.20086937056874 1.3528897869812369 M151.38776285885814 113.90316015420969 C186.029224437303 72.39928412629685, 222.26169296002206 31.51968257855745, 248.45113697400336 1.0203751796336888 M154.5448704834136 114.78465951078475 C189.462170833247 75.44004304318238, 222.59300176093632 32.743543185898744, 252.98481586867445 0.9935563060168704 M155.76536985831734 113.50998548914582 C183.18961497741032 81.68192181518677, 212.20776454981996 47.275779827855544, 255.08942012128853 0.3454342403162798 M161.04755172273028 112.47001902298443 C195.4560514933557 75.90013571440093, 226.8324678698756 36.73604597056331, 259.6073417807828 1.0812141282977166 M160.28806004905957 113.04743926418386 C193.3302118377657 77.46232339073845, 225.3396170357969 42.80278633161606, 258.51180975929753 0.6550050128744545 M165.25355846979957 112.76106124467938 C202.19751774775213 70.36937015463982, 239.93646181440627 29.046249559284334, 264.94966482729063 0.4963465446948305 M165.9788899336506 113.23615279797255 C203.1629248368159 73.29968377800319, 238.3455730424563 29.801197046387628, 264.62653166506783 0.535472887788643 M170.8095424740088 112.42418488651774 C199.47061105110657 80.42107164920907, 230.31744596327007 47.33636753739631, 265.45117112167054 6.506722862861253 M171.4724568181184 113.96248940076939 C196.8926364191761 84.77418257042058, 222.74353369486462 54.97077888560415, 265.29939407121265 6.076720209821261 M176.0445599937832 112.09423635503883 C210.31769440605717 73.64848088965374, 244.00756596132126 34.68334031057793, 263.9491547792718 13.85599722255418 M177.2351765800288 114.34747101622308 C206.97479522607853 78.01924191260943, 236.53693962184514 44.03616543474597, 264.5997772747219 12.05447509333888 M181.28104402851 113.1743331108909 C205.82212790107724 88.64867627296522, 224.97816278204755 62.733880395969074, 265.93225539549127 19.285981039644582 M183.28250590040966 113.74035157959125 C206.8995150739548 83.741932359146, 232.4267845051287 54.81552820145792, 264.460321115133 19.546333866321845 M187.64883208661445 112.81104031061315 C206.61026434037615 90.56154990205167, 229.27420460267652 65.37391532338039, 264.88325319072567 24.700595105003387 M187.39922003182687 113.78754365952247 C211.19801510498223 86.83049235161204, 236.74984781401656 59.47119265575047, 264.4259701194834 25.18946316925046 M192.39613841748383 112.79419416485385 C217.24216254582151 84.25776559536585, 238.28164913731905 59.343443388400004, 264.37339192340016 32.36749832516995 M192.85663503030833 113.42619181627438 C220.86463187238797 81.46541451768789, 249.01457553062215 48.85778559696524, 265.1545464153388 31.47597869577345 M199.70358177954336 114.53207858015232 C213.17306298631786 95.35362565666267, 229.47028131763966 76.99186239433467, 264.7172920929022 38.57262066079245 M198.63288552341987 112.95309924349569 C220.7062140770199 87.70341765096906, 240.70279349855232 62.788821349989725, 265.47791293372734 36.50122813114838 M203.99515767218034 111.9512485171567 C224.18232962890968 90.481596477598, 244.58449660670905 66.75515017258388, 265.7869787076568 44.59533976841017 M203.13014694218944 113.0183011264439 C220.31935680163974 92.90428894222255, 238.2992938047256 74.33600460056289, 264.6222511772146 44.032717794023895 M208.75226610381995 114.4717066324063 C220.4115267070697 97.7696638338945, 236.99066880958216 81.66220947778919, 265.6667944880608 50.36301393889411 M208.39491328918282 114.6939912837677 C224.33644768474434 96.11276597055067, 239.40778611886256 76.52587406985782, 265.26922442283814 49.25839557488038 M213.8246838238495 111.90672663654934 C233.2933849821988 94.01506142676924, 250.9393524227703 69.68988516829543, 262.74772277951104 53.65261083811522 M213.83521937042798 112.46809552572469 C226.38123538018536 98.28711176591388, 239.27502570189753 84.86174578390262, 265.0565506351353 55.082029676698156 M218.2445920906942 113.43802993612515 C233.77596079227393 94.55167055723767, 251.52376520940757 77.46914635198077, 263.82171046543266 63.29233624761285 M218.4409185634907 114.31319829596357 C230.0710901804822 101.9604227193051, 241.0239402923906 87.91501884174082, 265.0785753791719 61.418587355625945 M223.53754890374128 112.51560899178187 C241.46662358933554 93.92420119530946, 257.6171212635941 76.06973409821393, 264.73658117021296 66.81616700303515 M224.50090504939888 112.68011602974187 C238.02563429234866 96.93908818035032, 252.21876249454579 82.58639982203785, 263.9474350234759 67.94251785942127 M228.53651677141607 113.83290396005881 C243.83285000654362 97.1866933993271, 254.63012888601588 82.02630033747027, 263.2100630272771 75.43902763592142 M229.82339158071846 114.56682379570825 C239.47029251633114 102.87671313475136, 248.8564032254348 92.48921250940741, 265.0133345081131 73.15667906923282 M236.03677591411525 114.98133563182701 C242.58778271223662 105.33391844407103, 252.7519382797436 91.02658650948571, 263.48470188202197 79.71132331214268 M234.79707268448675 113.26673823434312 C244.6637752069544 104.0828064884844, 253.05913514094246 94.03974528121772, 264.4257105476209 79.14062043804098 M238.8902471772356 113.65193417295735 C245.10934811891204 105.06128827273761, 252.01116973909666 99.28621514390073, 264.42218420484426 86.72056857256986 M239.89169757524115 112.66409629862677 C246.17368372118668 107.95720659411725, 251.05428990526008 101.94607952883435, 265.6338045440367 84.84596173132606 M244.0998149442024 112.83696786498919 C250.05181082325421 110.1614753405271, 252.25398361670852 104.82441863523124, 265.5976600041692 91.29301607374227 M246.15864306804755 114.52933399470791 C251.55751575842365 108.10061912050645, 256.10063238647035 101.67567913830858, 264.88723549992636 92.39177176773673 M249.47424033940285 112.48447604357074 C255.86301781300378 110.41038632033255, 257.0785145422384 104.71972233190442, 265.95465602938407 97.64818952630814 M251.29207678143382 113.26736932034413 C256.3654889895897 108.50372826712426, 261.87508689955024 102.66134563230601, 264.29716322131776 96.81285135753062 M256.308075604494 114.28591169807284 C259.230674413926 110.88310498543386, 261.7133446514392 106.11088717518187, 263.30813863912454 102.98738259582679 M256.57265544547636 113.31941575626067 C258.22546460146214 110.3689467659109, 261.24748484336976 108.05136505612688, 264.24248929458525 104.12787234073403 M262.03430650885565 113.53715259713745 C262.87637805861664 112.31055082048546, 263.3192888916774 111.60290810143002, 264.57190504442286 110.83567104151659 M261.5551947377564 113.53284986430472 C262.69444645222256 112.47408357924607, 263.3320607384916 111.46479898269382, 264.1613355928598 110.63767464103364" stroke="#12b886" stroke-width="0.5" fill="none"></path><path d="M1.365031034163597 0.014722110965738451 C84.28145944856371 -0.3290164110273647, 168.26027136201395 -0.9561712079919387, 265.4741386422625 -0.7559593349328663 M0.45708577425345687 0.7611833886067763 C93.69582586259156 1.450169709226368, 186.21888526386186 1.0634035539750197, 264.0443738762196 0.0646190083629858 M264.903177404776 1.2765059527009726 C261.75663783751406 34.98481583707034, 261.8051161428539 68.30372714661061, 265.6571938637642 110.40499777160582 M264.5246508447451 -0.579073297791183 C264.2513409554584 30.87734172213822, 264.27578163143227 62.278837499208734, 264.5949516324324 112.91024915594605 M265.071006045541 112.83662592239612 C167.49761341630926 113.04091571016363, 70.82556230561005 112.80852499386158, 1.545475225983861 111.81548146692262 M264.07675583877807 112.37569766837242 C180.88520430002006 113.47570326879625, 96.40386661328112 113.51061768352858, 0.003684370698480682 112.1493267863609 M-0.42440960370004177 113.32401979528365 C-0.7230134070664642 75.67133537344633, -1.4272244632989166 37.7053021814674, 0.692632520571351 -1.9355995003134012 M0.8376323906704783 111.35313005466011 C1.8845426317676899 86.47483439613131, 1.43806846704334 60.53191490489988, -0.4091082187369466 -0.06282665114849806" stroke="#000000" stroke-width="1" fill="none"></path></g><g transform="translate(90.99999999999977 12) rotate(0 43.5 28.5)"><text x="43.5" y="41" font-family="Virgil, Segoe UI Emoji" font-size="36px" fill="#087f5b" text-anchor="middle" style="white-space: pre;" direction="ltr">Solve</text></g><g transform="translate(434.4999999999998 10) rotate(0 54 28.5)"><text x="54" y="41" font-family="Virgil, Segoe UI Emoji" font-size="36px" fill="#2b8a3e" text-anchor="middle" style="white-space: pre;" direction="ltr">Refine</text></g><g stroke-opacity="0.5" fill-opacity="0.5" transform="translate(361 71.5) rotate(0 131.9999999999999 55.5)"><path d="M0 0 C0 0, 0 0, 0 0 M0 0 C0 0, 0 0, 0 0 M-0.7494358047516891 6.3644071184593365 C1.3971150658941822 3.894229915843878, 2.840731539179869 2.0764412763241618, 5.051109119089788 -0.1723579775693601 M-0.011866064709598778 6.393328690205805 C1.3263306198874028 5.079936945304262, 2.4220104410275223 3.1544928923724043, 4.957790623562879 0.05054444296632349 M1.5417943053971634 12.133094419955789 C5.141724244229922 6.854543771017211, 7.897004143389358 2.431092572352932, 9.193816465091837 0.8131973455741766 M0.13775790791023845 12.292151328593075 C4.1196931187804156 8.172567338821386, 7.635699231812588 3.7208036007256924, 10.931988429230582 0.11207828699497002 M-0.12213329696564479 16.6639390521689 C6.084458979484682 11.704996709583051, 8.417694793222848 6.820728978816486, 16.710812998473127 -1.30778536694823 M-0.7878408786421875 18.293263943773383 C3.7512754630252934 15.491671215599853, 6.262935343110491 10.287780740359299, 16.25479393126764 0.19582155690761116 M-1.478847222197869 24.526094473614453 C7.020352476421083 16.40482619783772, 18.16878875309744 5.285893521319192, 20.097755249867106 0.5408881301223758 M-0.08190546443692703 24.30168335204488 C5.7813215118961 18.526563347235054, 11.832760528832377 10.277704794529459, 21.121659043522442 -0.5990883331582424 M1.1625145739456073 28.881494402650944 C5.688540938684835 22.550580493662434, 14.823280236261676 16.305121185765692, 26.04325906248054 0.09478123244016778 M0.15288169500878013 30.892795243066004 C6.116436062872133 24.1403390044971, 12.635476019974124 15.467214794830568, 26.915355637345822 1.0685465544474066 M-2.041561633450957 36.09902545046185 C7.838175531668758 28.77054183954434, 16.466167064361123 18.256728595676925, 33.50635411538819 -2.084663404034149 M-0.003317588111432457 36.17733803466086 C7.6508967408356625 28.29854090308818, 13.138692491583326 20.080528779290894, 32.064487366421915 -0.43450275517411185 M-1.1474801943032986 44.104214853230644 C6.8877823194901 32.88591498466175, 18.8121881039911 20.781933188696964, 37.0464433467028 1.7019758225512227 M0.7767288108960742 41.59710483215355 C12.095627853227882 27.520972691772975, 24.05800708740851 14.91402309442292, 36.90174208097284 0.8271777714696249 M0.5447868295013123 50.70585921280913 C8.69492146595451 38.26984432993372, 19.392054482205488 26.912817040672667, 43.00927518549912 0.3169228181569821 M-0.8696037577465958 48.65782216903649 C9.332586738925574 37.72293832498322, 18.251563189820132 25.811599438153173, 41.943614059682716 -0.21128146552005944 M2.021612867037639 56.375557435158 C13.05917547477105 42.37580238472164, 27.43127715155564 24.26615119356064, 49.2159713198899 -0.11461956536507145 M0.6288664846446963 55.11493294541101 C16.458352666052942 35.151661519108444, 32.175833416744126 17.961824550779042, 46.67318177777368 0.8913929423492597 M0.244744606418422 60.347887372129065 C17.81079767215991 42.33488267072687, 33.12164319841752 22.783684869645285, 53.148998928949894 1.8203538279457696 M0.5599055132920654 61.480023069769544 C15.360989785914597 42.61470182270452, 30.94667576855208 25.591450166268437, 53.819830138929845 -0.48630922982108515 M1.6812151977279157 67.3999387599058 C21.329009927892635 41.83992075883452, 46.028108213490846 16.842213260714523, 59.64119845079185 -1.0771729000587023 M-0.4484732971108585 67.20660439743618 C14.22224419578654 51.82152576498797, 26.956843099477076 37.05443841897703, 58.142028243373346 0.4777448014613235 M1.2726671660503754 72.17794195967166 C20.192694803543453 51.64216962766696, 39.610896041957545 29.153707627103095, 65.06175581449051 1.4065866565822134 M-0.36493625937044527 73.42299347123502 C18.787665473162473 50.65013970954909, 39.56680110051058 28.471638531002824, 64.7070516197883 -0.519595813702189 M-0.595324675501459 77.52389669827846 C14.72604596349563 63.03059602356418, 29.542523526021025 42.24472115102212, 69.00523020815864 0.9983978497203125 M-0.6917564607645801 78.66519026215849 C25.26474507493688 49.550104460757595, 52.080294263401164 20.901730931379028, 69.67375999339684 -0.40033891681920153 M-0.5633400228528274 83.2551050066869 C14.359649695308836 68.77651466913127, 30.32110123587677 48.17082512850144, 74.47752631087097 0.962828335316317 M0.1588494398908722 84.06266110780791 C23.38743869082923 57.190090031023715, 47.33180398650524 29.733160775306267, 74.57231951788309 0.7257240172116326 M1.3909146871090101 92.26434786174879 C17.51188412035519 72.96156664481116, 34.27583642123457 51.652927549892134, 79.58492206074027 0.20242471522199423 M0.6474989803180264 90.84476535417572 C24.84612281185491 62.1163797825416, 50.127172931360015 34.27042320452107, 79.08698054346917 0.067444521882706 M-0.5174805205316915 99.29941812464759 C29.40225780215595 64.57622702868323, 62.226637625543255 27.39415810352415, 85.72004088684128 -0.7174641046019303 M0.7313070977105127 97.52653829408601 C25.85659288276514 67.48674910808073, 50.77795664134372 37.221797780365726, 85.3357998488392 -0.41660950270463104 M-0.9113362456906771 105.28974928156677 C35.00624143579964 63.83583408849785, 64.53317904625484 29.80591544132193, 89.25087947728673 0.5314897276963251 M0.9269590417619611 103.64156990786287 C34.19797771618382 64.4041054675229, 67.37986580952018 25.147451103058827, 90.6534184092153 0.4882728519420283 M-0.28203080025520677 109.67304418435813 C23.146845291600112 82.63636708499874, 45.828162035211946 56.00410429702959, 93.70678001115144 -1.9345836319225214 M0.37378328769448643 110.47488360399873 C36.18842386193264 69.66613216365583, 73.6084337186832 27.626481777886838, 95.87078362828166 0.6840188609240272 M0.5085800818210018 114.9106792483141 C34.10699864142519 78.40571143393063, 62.865138608207644 40.788079584317884, 101.46745792654806 1.8884249183933193 M2.425591826163746 112.98459041692664 C29.710833262711706 82.01148709709112, 55.69191936400216 51.804688167210195, 100.0979271062603 -0.7338011922662204 M5.949013925622211 112.8520098346181 C34.23755490913318 81.41646815716413, 62.046355324654556 49.52624864062672, 105.94897415255141 -0.08257321539544904 M7.465280844363377 112.57244438947065 C41.42996926204808 72.39129445244079, 77.25246015866902 32.13638743990512, 107.00368687183541 -0.04490065752738559 M14.847484428299119 115.06099899101304 C41.380592205269764 85.74462650473662, 65.21188145671248 54.55927701729347, 111.29276287727423 -1.9176876814370374 M11.967903639053453 112.81672131351428 C40.171127172194346 82.53034343573496, 67.83387075515675 51.71311304291868, 111.59848515022911 -0.3978498763670544 M19.1102868939265 111.55807374845963 C44.10508919881789 82.62999026970694, 69.6634938010005 51.17220449263649, 115.89554475080075 -0.8945162435479475 M18.372806051418124 112.62032502665889 C39.78233408845928 88.35328103863348, 61.570862153955744 65.71722909865736, 115.85799156613501 0.3757067565388965 M22.806589885617086 111.93914008380963 C45.63508580139226 88.21326575134529, 67.9174337963536 61.23257494204699, 123.37864979821524 -1.1715160405447307 M24.242168119179496 112.73605237489684 C47.76823029153498 85.09954848341971, 74.25697332636089 55.51075884413984, 122.78619605674675 0.49392953401454065 M28.354407457445625 113.40040627802381 C56.71529972637899 81.77785651286835, 82.47954658160822 49.32599815265801, 127.55734033263042 0.5386251544244303 M29.54072630852169 112.19766657082954 C52.01533781720612 88.33151515634242, 74.43360344213245 61.781319267293526, 127.47848178478642 -0.042337822947679626 M34.20962692252488 114.8385595579539 C71.93350950722458 68.38989237369367, 111.77459188341857 25.26161923620988, 133.97072415812107 -0.25147812767976063 M34.41855128216685 113.82632383544934 C59.002054175001604 83.74751882472522, 86.58669374652143 52.9498440417361, 131.7452883414382 -0.26378522674643534 M41.051981084929615 112.87558945456064 C62.80858778004885 87.2800779560989, 84.82813959810056 60.72559604230754, 137.57078233779995 2.296267589994457 M40.49077013129911 112.66164675635761 C64.64948471403939 86.2291032712981, 88.19285206251486 58.5641624688109, 137.8948895144242 1.273790418610659 M45.474076007772524 111.95896444469581 C80.91611072727622 67.56752135113909, 119.56720790479659 27.609003098806696, 144.90834142574178 0.37025808840785146 M44.62034414364054 113.46815092954675 C76.78948924867282 77.45926663353896, 107.44610498497158 43.19901029978948, 144.0131155199285 -1.0794414242750037 M50.16736324512843 112.38645530932013 C75.94082758984801 80.50203489852045, 105.91223791756528 48.63168403604039, 147.8221012350593 -1.3906319055878384 M50.19779103537533 113.1663183176181 C88.03089793745737 69.25917913219772, 124.09977794554592 26.3917418276324, 147.74613077067326 -0.5609182844110592 M53.61116761011003 112.40631177528537 C93.23867330957532 70.30639598827287, 128.75824887785356 29.771662859311448, 153.62460706982733 -1.8722253610318802 M54.92396271922557 112.33902389156408 C77.96319752390934 87.5766006589688, 100.11379359008478 61.56416716485607, 153.58015610784264 0.4353886758038499 M59.60260037780159 112.99679545377505 C81.73767826896916 86.42541349717318, 104.5963183678103 60.25528624943581, 158.79127749315853 -1.384866301072492 M59.43370850738489 114.4173185692088 C94.6170451112492 73.26180779776011, 128.16082614552647 33.71650319181809, 158.6242465691587 -0.1345986976378697 M66.22588219828737 112.1928085809726 C102.76186890932624 70.59893655574032, 139.7929499700862 27.190332541858623, 163.1463765591277 -1.6385964447489556 M66.35894802454692 113.41330795587633 C100.55400375235979 72.34677136726677, 136.69244888828376 32.79263128449868, 163.89001362080558 0.4660078078651253 M72.82166600968009 113.41252275872985 C103.33162549011115 76.85196187646528, 138.28990121124474 37.36584173310057, 167.55204158084757 0.35702143479051074 M70.39174412093377 112.65303108505914 C103.79988719982353 75.84211862192915, 137.00799150702971 38.11922466881005, 170.0744029255054 -0.7385105866947583 M75.51695024105454 112.23691189300749 C107.7883355347698 73.62865386947024, 141.17677847983987 35.68781374113115, 176.09425536239291 0.31772686850663945 M75.9079660752296 112.96224335685852 C103.9914491431459 80.3295109329833, 134.37790604807688 45.64853454188162, 174.83941657444234 -0.005406293716163191 M82.91410658052344 112.5099288356573 C108.8809045143394 79.20285425348055, 139.51710646614674 48.12174123068549, 181.77187396687646 0.7847383332511697 M81.75006736265648 113.1728431797669 C113.02227677156058 77.78844502211777, 143.98434639548736 42.83735216309219, 180.59489085533846 0.6329612827932749 M88.27685220716157 112.36332874264002 C112.03562735237495 81.3381253917337, 140.28926907635798 49.716308020077555, 184.682598948373 -0.8504233900151235 M87.5068078868986 113.55394532888562 C122.58500851539253 72.44417458021519, 156.55364475545224 31.150309846894984, 185.77821848437796 -0.19980089456504402 M93.21927755908163 112.31684571580742 C115.7521404583731 88.64710603078784, 139.56733283127406 59.57090581430392, 189.71200511999524 1.754241425559485 M92.29603174817802 114.31830758770708 C122.98435792382591 77.36309055980581, 152.78225058164935 42.34870951932986, 190.6371263742829 0.28230714520123 M99.89181856535843 113.30301616112021 C131.34503575136216 72.21973172340222, 167.9337302991629 34.827509698828564, 196.71951278581793 -0.08396518906423012 M97.04438947517893 113.05340410633264 C127.19638653407624 79.15402018256054, 156.53157479657736 46.92333887955013, 196.5093978662374 -0.541248260306503 M102.67028441410467 112.7673554304302 C135.97627095389538 74.39245703282594, 168.9330000155894 32.33063615153323, 202.2274155089538 0.027737742965470602 M103.2701157931234 113.2278520432547 C137.52559978772308 72.13258826236702, 173.734459016048 31.234855800323672, 201.6056504979636 0.8088922349041212 M108.34182978439514 114.69318117969806 C143.08096905841302 74.8711407511128, 174.53219709847752 37.83130851857011, 205.60685234347767 -0.4175664973906805 M109.36275185569559 113.62248492357458 C145.8854506044615 70.01868480893256, 184.44770873566898 24.225347899036066, 206.28905823564565 0.34305434343445995 M111.79398261434257 113.70179001077562 C138.70444082493609 83.14538691398323, 166.56101624135533 52.65084643020241, 210.76683560250223 1.2736843167190983 M113.36592301311761 112.83677928078473 C149.9159754635705 70.33607869595335, 186.26441532961746 28.87010706323524, 212.85812924200565 0.10895678627692007 M120.20061633302169 113.07728082962358 C158.67747243334424 67.73489026736283, 195.55814877490263 27.290866338247042, 216.34022309010226 1.0203547162555395 M119.25706104407357 112.71992801498645 C153.79255545900114 74.10988526471718, 186.89474671845994 34.88918902163449, 216.82642810822773 0.622784651032859 M124.71097762854528 112.8667314880937 C148.53329127896623 83.7908833565254, 178.42780721866217 52.56675181956247, 221.3727458693905 -1.9332118219296177 M123.73018192378562 112.87726703467217 C145.7723968634196 87.45328606655372, 167.64357211106955 62.668868757304416, 222.70535362203404 0.3756160336946408 M128.6356586799881 111.90502214214673 C157.35583671410194 79.35880535041508, 184.36791978040765 49.02754043785933, 227.50898049444172 -0.9923695168755984 M130.4756080559379 112.10134861494323 C168.99208982976754 69.50024881153001, 207.02536292806406 26.284590203719347, 227.28386099960866 0.26449539686366563 M135.13562492546285 111.91501189363446 C160.5973128448506 82.10320937901314, 188.06370016966224 50.49542910877826, 232.68137677836864 -0.11199364173066328 M134.96274604075248 112.87836803929206 C161.1875924776822 81.68085698585736, 188.32469584780895 50.95875597300472, 233.41123965367376 -0.9011397884677024 M139.40818729404435 111.53236214851755 C175.85234553939216 71.80872865704328, 210.2541073621072 27.926564400753563, 236.6401709962555 -1.0169475853113141 M140.71980890691356 112.81923695781994 C179.7985977254584 69.55183230207219, 217.03475344988567 25.78650704636415, 238.6207763964229 0.7863238955246601 M144.37602997384528 114.40571325864785 C170.95943730708606 83.79988368279147, 196.46617206738102 56.327865943393114, 241.9227087981866 -0.8754541114340668 M146.11659387964318 113.16601002901935 C172.61243196203094 82.4753526645253, 201.5744517294001 50.0506663720722, 244.19282835254978 0.06555455416486211 M152.87318264394042 111.22150787998602 C172.13156272111598 87.53619124086782, 191.3013850153985 64.7375491485817, 248.82276812227462 0.027533381752860464 M150.64420461262551 112.22295827799157 C185.42036983157763 73.04789916569561, 221.06598069525356 33.09887069525412, 249.21789587227647 1.2391537209453105 M155.33404824244252 111.8041676143839 C177.05573002965698 88.36424005727655, 200.3854273944301 61.93087652727404, 254.92047239759438 1.069863800210186 M155.69782895608267 113.86299573822906 C182.49944445877847 84.58789829954515, 207.6848908826649 54.38763624478598, 254.22028573428713 0.35943929596734847 M161.97937519842634 111.14091636780215 C193.4063314222748 76.28634035118078, 227.74908868788134 36.777522257208474, 258.7713183122586 1.392364995789677 M160.8564611886988 112.95875280983311 C189.60947323782892 79.2186253872016, 219.4223767567446 46.43777785151174, 259.94088891380386 -0.2651278122766314 M166.50528520000464 113.48195699209262 C186.8548127274974 89.28827030861704, 207.5061979689917 64.8678867669143, 263.43608901635156 -1.3216232953251108 M166.66567978569603 113.88900290129621 C186.3024557660547 88.2353268137835, 207.311095756977 64.83820249294858, 264.96084378552035 0.11583925153755104 M173.61318639726161 115.12000422343871 C198.9452523648462 83.10522880040685, 226.37871855882182 48.38986868230295, 266.2017048030334 7.5180559298313625 M172.26131062176793 112.72444536794237 C206.49253075200406 74.21844027350942, 241.47594578926265 32.56622074920881, 264.5161368047061 5.465208672016061 M177.9790963152816 112.71691342302397 C209.46485376257195 77.73639263192294, 241.60057832202443 40.53256926377267, 263.2959627173409 11.621975756328794 M177.4324998841082 113.96058425259575 C196.60440964597208 91.72642663228011, 215.6611308987367 70.04823137321216, 265.3060921160072 12.578178778369221 M181.22296476717725 113.63030931770018 C201.13189664907122 92.59636389669235, 219.26234243227339 71.00316395330421, 263.0159740343584 19.468397795350654 M181.6847869854389 114.25060702624879 C213.18479787671222 77.68434245853146, 243.81088510561057 40.810662511923155, 263.7155590316175 19.135800488421125 M189.43858705702337 112.693118938428 C217.4066587486189 80.44252591140591, 245.80851181674996 44.90177792951749, 263.94595940417014 24.59222428308037 M188.8637677669442 113.59116752650274 C216.0962104718725 81.47940455921398, 243.01083377942575 49.89442236948261, 264.1264571762305 25.400179407495827 M194.8826317479327 114.31374826205925 C212.1234334348135 89.28690114461097, 234.5593997061308 67.15757141362833, 265.92657176488876 29.911626821369794 M192.93787226634618 112.82881259935007 C208.48780288248346 96.57435374319803, 224.6661531852839 76.77228703273381, 264.9808494000682 30.947354569085803 M198.16061289398 112.50090556955467 C218.59795384404137 87.2758409537432, 240.73041391644844 66.6538270873186, 265.5848095455892 38.507579316179616 M199.278086949829 112.09105545739214 C220.6627043576994 86.35460871226205, 243.92813538098432 61.56746837536429, 264.40460498181505 36.85308137329237 M201.915917808278 112.96377808776603 C225.664048838261 88.75738844109645, 246.302028026204 61.87721824719659, 264.023044434384 41.7240346193616 M204.4407324801148 114.29280232162134 C218.00697218840975 97.34538052599521, 233.84103633207258 78.69622720967168, 264.99017739669284 42.19925822860792 M209.01577929490148 113.136855347654 C226.72730088700933 90.94827773306771, 247.6225664027863 68.93837327672216, 262.3489345813576 49.94745746709927 M209.44718594838767 113.56742577963897 C227.78341323541147 94.05314790989149, 243.87497885178075 73.01787107944281, 263.4202675193954 50.259709490356585 M212.24030341696317 112.28010582607041 C223.8021976140991 102.21104769596712, 234.2512596015071 90.92190303102913, 264.6447475115941 56.933453220576055 M213.56665864236976 112.77319142743747 C230.44606407722938 94.78658430211645, 247.7656188696501 75.33652247143428, 264.5308965371163 55.23306420136244 M220.4684417285378 111.50380030397599 C227.73090940235022 102.7134797908887, 237.93510989179856 92.17007422483569, 262.93668303820635 62.133396606643814 M219.59591827824516 113.92433122761821 C232.04262690869024 99.7273386779363, 245.01473392833822 85.539830816215, 264.37447886257763 61.975634832617956 M224.36701904273812 111.8686885082225 C238.79501798625893 97.64646294840269, 249.7408418689409 83.41327954830149, 266.72478646526906 67.47396465626319 M225.642066768736 113.69747015117358 C239.34432907768843 95.5277191573054, 253.6840602789789 80.33504773256942, 264.84348533696357 67.18720022172441 M230.57670566363896 114.41082246977064 C243.82632248454644 97.21914295892176, 255.18286061685706 82.54250853087373, 264.6719763558949 75.457313346286 M230.40226245502646 113.86269953570488 C237.35564856916278 105.59719573343769, 244.923942139801 97.6262862890897, 265.45322099799614 72.91743221467424 M235.40104515435297 114.24173316547223 C242.158605202055 105.56911381225383, 251.26143345267974 98.4653394166388, 266.1339577351683 81.94061053789575 M234.9464978748386 112.79000372720458 C245.7541653692801 101.03945135856692, 257.46893843576464 87.91422321255871, 263.9654882828691 79.75167860429157 M242.99242656895495 112.57325387628794 C248.396574058983 106.15118423597437, 255.97460352601314 96.4370678834508, 266.1285450031734 86.46266471727587 M241.99732199435658 111.88033343827396 C249.75191182403896 102.41840841263479, 258.42021986158466 94.03205490397966, 265.45165994127603 86.54384187090047 M247.04111222055766 114.8176968290696 C249.75477678160175 109.22009417250494, 256.6284352895062 103.83929736267484, 264.3049848480229 92.57055373627817 M245.71261797630254 113.0720323899055 C251.0239359252736 107.63181785626486, 256.99461980677955 102.0005402492694, 264.35575194843904 91.14925792299336 M252.96120991323582 114.61267655477792 C254.10382597653773 108.34626619953045, 259.4577688975182 104.37334945196017, 264.4738694487917 98.5991577508634 M250.96532541186056 113.2719106697005 C256.8057244631784 107.76290186725888, 262.27986536929467 100.78434249817683, 264.11808670804226 98.61047903567162 M256.03384718842733 112.42594176254514 C258.6941926034733 111.62002277425916, 261.86875203578563 108.30208836613141, 265.6128086476759 105.113365377047 M256.96175761561767 113.59017266857715 C258.2595973699453 111.7596530970169, 260.57061855362474 108.98552469377063, 264.2099525937051 103.8487841547736 M262.20278181613764 112.82861242560487 C263.3071811373019 111.93827184697231, 263.60681729184466 110.96820511857504, 264.39933883515505 110.29218347434141 M262.50596407482743 112.8394216397852 C263.10828614405466 111.9219539398771, 263.86132568152885 110.99464043506428, 264.35204940801805 110.58424614410103" stroke="#40c057" stroke-width="0.5" fill="none"></path><path d="M-1.0207818750805284 -0.7868264121724109 C54.4715920809565 1.501885864779557, 111.9057223936929 -0.11522698481081672, 262.88811410601494 -0.4203757407042721 M0.1279365778781545 0.5886915563930563 C90.38209751113625 0.9357196756239541, 179.09898554938817 2.2006538847344412, 263.29956779782106 -0.16797536877792596 M265.1527601536361 0.8853761795908213 C266.4022328639494 43.32986097401008, 263.3410659218298 89.69276656005532, 265.96126372180856 111.1611154321581 M264.8617010833693 -0.827004668302834 C263.2434986146444 40.706651685666294, 262.61093845090807 80.37178062722087, 264.70581136364467 111.22033450286834 M264.8190672783998 110.18440364878258 C191.13817468441815 111.79940803576751, 119.25794514249719 112.65147341027534, 0.4358598099794725 112.10471151910784 M264.05655474308827 110.41953402368051 C184.6999999053333 111.58603691516313, 106.60135933231338 111.7499461442924, 0.18247378514082552 110.40220733278458 M-0.4069266263395548 112.24481996335088 C0.4173577056359501 86.6352809251286, 0.9293757305573673 61.342722248844794, -1.312461907044053 -1.8487149234861135 M-0.6403492568060756 110.701024713926 C-0.594099647840485 74.71435589948669, -1.4037857423629612 37.27218457497656, -0.017069893889129162 0.019152077846229076" stroke="#000000" stroke-width="1" fill="none"></path></g><g stroke-opacity="0.6" fill-opacity="0.6" transform="translate(709 73.5) rotate(0 131.9999999999999 56)"><path d="M0 0 C0 0, 0 0, 0 0 M0 0 C0 0, 0 0, 0 0 M-0.1413722231658051 6.201553850670449 C1.1718991602944773 4.187889923373788, 2.4037780952173016 1.9585167192234445, 5.005079244407362 0.31956122702334455 M-0.42927688096183036 6.355817378734343 C0.8738435626296549 4.824616059001073, 2.2213110657393558 3.7767709646310585, 5.316046377974099 0.6140656269935185 M0.3583145731221544 10.782937772988856 C1.210546811546612 9.284668443185227, 4.8842917981626055 5.954071991353411, 11.808357095670832 -0.6960239757701991 M-0.5993736191559924 12.616208314567386 C3.393309739290661 8.37343272082843, 6.052584455558181 5.069364148311876, 10.525654765170945 0.3797804641619089 M1.0983568680891533 18.94469641232925 C5.726729740508878 12.609534505131224, 11.355478084123174 3.672397785133466, 16.83819903945871 -0.2562009518104622 M0.3973505999380489 18.671126490366333 C4.182087554949621 14.273515812746304, 7.432871319110765 8.442212181832916, 15.296929851643224 1.1388340067979863 M2.16548942608752 24.30044385762429 C2.710531969912523 19.410639172307455, 9.302882599463652 14.019780156897315, 20.467782024571562 -1.8966701110661504 M0.24260293060906868 24.646420617303907 C7.204728589131421 17.457696420476935, 12.85575714925867 9.871473273815374, 21.961768954338396 0.34641666376735003 M-0.4503249385813817 31.505385212365738 C8.83544078320706 22.9456276270203, 16.181699304452824 10.322772490058526, 27.7671402549859 1.5638246586558164 M-0.9000204409892305 30.253788483094624 C6.908146919302504 23.86915024230877, 13.211241698298524 15.879344536839135, 25.87301580202988 0.282356018574232 M-2.177316747708293 35.06390513461207 C4.9849505761013395 27.627516748838666, 11.3954091602481 23.533170671632995, 30.493399112901486 -0.435588439808857 M-0.7224524292257151 36.81942260712509 C12.181181204950041 24.669602274395977, 21.69939766246062 10.298321688094187, 32.68327307183931 -1.029716552117538 M-1.5862946480839497 42.09171640742176 C11.762504332394718 28.85402231733253, 22.202395029957447 17.20870073012292, 38.32436973955606 0.4868852422666272 M0.48278811403075395 42.7857264462819 C8.826106084538287 31.59647638725511, 17.644079221694977 20.6845173221548, 37.476571387426304 0.41262958674696293 M1.828677501529377 49.392488679521605 C16.723614568889293 31.850634361677475, 32.53462283436659 14.244964916844253, 42.29452126714938 -1.5694698422820323 M0.26066931243978075 48.06919313561998 C13.675502286364978 33.292555059938415, 26.383185595473734 16.141423342010686, 43.42309155091249 -0.35330231316844163 M-1.569806166668549 54.98738140374731 C14.563174804037613 38.56397469238842, 29.885493008249394 19.15849928120616, 45.73400858691919 2.062297205271964 M-0.007690531876995976 53.87118842680316 C11.58516068870627 40.41655477208269, 23.549696596431108 29.218922973808343, 46.93694231095749 0.8760902581911729 M-0.6234657614399879 58.96522047882567 C10.757158107824683 46.2713134385428, 27.315025959067647 32.47372546493973, 51.70464458106524 1.3916270877643235 M0.052754829740038645 60.80937732988636 C17.820333214237124 39.86968497934345, 36.88942238962798 19.9220994615981, 52.33088259468293 0.5267824274896391 M-0.5984224295756846 67.01203118781517 C14.8559026451703 46.733093594558994, 31.91588017240784 27.729348017160696, 57.93892789082528 0.620626953921839 M-0.19035720457798533 66.72850705175618 C21.042239608523385 44.90164367061485, 40.430140505440555 19.62924400596154, 58.97409927574844 -0.6214514202181256 M-0.965875442866384 71.48766693877427 C24.173367552843292 45.57160333554562, 45.54033502984847 19.768416122618284, 64.27601514839907 0.9188937565802107 M0.06127482580006216 73.05828573679922 C14.258368444914824 57.46606507453869, 27.746180393134434 39.522130538031014, 63.94692940627564 -0.3789642832682958 M0.8172207149256536 78.50243800542978 C16.71090716187753 59.29200829108663, 35.97889831436672 36.067677346503615, 67.60074874502435 1.2736908944662346 M0.474689357033796 80.17126120757041 C13.05326001890338 62.15934910291635, 27.242963570115283 45.65858362856245, 69.19863798492416 0.9851900983940496 M2.0880695510001885 85.4466444656174 C20.15175253718034 60.97338182144027, 42.62068736943108 34.1441576649629, 73.27962906290087 1.2647715704156326 M0.5843250037448513 84.19360390323357 C20.8465894368952 62.241160307895335, 40.964587504420734 38.77411175223996, 74.20214018881562 -0.20066939856724275 M-0.08293966840503941 91.84075284306392 C18.950893220991215 71.85097630012056, 36.497891171503866 51.76804945823114, 78.09984224326638 1.9145554331551722 M-0.05020167290715705 92.13653352134362 C19.131450592752884 70.40943186711635, 37.192919530301545 50.491478510720206, 79.11177914160965 -0.8794246390972802 M-0.11231871508077518 96.86492904582784 C27.447743965477358 66.87945428607856, 56.7092381321222 32.988565966645034, 85.70523241832063 0.4629519355205787 M-0.845432962291099 98.70710195628718 C24.712552843368876 69.04506588649062, 50.00197210715049 40.13436594269021, 85.41804814542786 -0.20908487153221245 M0.3158425141822363 102.4356671069676 C26.50094951935841 70.75678647365967, 54.281482942649546 38.58059641955928, 89.53532947930137 -0.7824630237613661 M-0.7559970912758445 103.66607203995082 C26.86625640430585 73.66875395985555, 51.93220470554917 43.1183876655378, 89.10536844892988 0.5686399141828673 M-1.530801089378265 110.28241792521001 C36.578702873722115 66.4510478687688, 74.22441321299387 23.327124882728896, 96.26132130840838 0.328376258145056 M0.1634646887982214 110.18579628238948 C33.788044691841655 70.40246434393643, 66.78102937444449 31.94327818168705, 95.30681147923738 -0.8155876552881978 M2.659181414418491 115.96770304294527 C38.51351923424682 72.30148449601604, 72.10794278198087 30.25637820642733, 100.72508154687935 -1.361798070033366 M2.069079363033744 113.15158064982147 C30.833064315039852 79.90842539419093, 59.455273362785285 46.05151791587102, 101.46187661000991 0.4726943051095063 M7.836083811762798 112.98258170778627 C42.4717180326107 73.43329494783941, 79.75228394075674 30.701759817827735, 105.37514182691407 0.4572359445390717 M7.1415789500428914 114.5384016261878 C27.07066040191952 90.05174571938892, 48.945065950166025 65.13680862140481, 105.97121339336914 -0.5721797029601916 M11.872031473939828 112.35153709457364 C33.015408472326286 88.53267800638628, 55.98990241916826 61.24120019517415, 111.20571953975029 0.41336670058915814 M13.088019241032711 113.29704243515727 C51.37609956228907 70.2689063176581, 90.65610479900779 24.28843085110715, 111.35439932797469 -0.6645759194423775 M16.213602908149362 115.10549428114317 C51.795200655281626 71.66872758901332, 88.95838213058809 35.45323395307824, 116.53663103859725 0.9816819811753916 M18.01315135062486 113.10836101589373 C47.96667744582321 77.97235270900578, 79.5603138122588 42.02645437703019, 116.24860306195768 -0.41677838745042806 M23.540562380629133 114.90554479122157 C45.54618014291588 87.72422454825451, 65.85267816769702 65.47679098464765, 123.2326145516642 1.5610976943562207 M23.296904339978944 113.28826456595208 C59.546672095109884 72.95124998974487, 93.850380258929 32.403286537390485, 121.84665730594924 0.01888978740223024 M27.201832148578887 114.8177699526446 C48.47307851388332 89.22788445836794, 71.2977974646686 65.29518300163005, 124.92265309518888 1.5509866138584627 M29.249107448716586 112.84378289949615 C50.63411050716735 89.27869284220043, 71.48943776149417 65.71339138784597, 127.33513174610897 0.30794517767053975 M32.15452022823639 114.16341753913903 C55.16221055911064 85.12285078574016, 82.615106450754 56.945569878048275, 131.77988767637106 1.8807113175178216 M33.26726786299743 113.60449508908087 C54.40513274141418 88.90684151893069, 74.5331100597025 64.69028834769736, 132.89299624705853 0.7445269725183294 M40.399892626801396 113.29372512854056 C65.05632690991317 82.86562391855404, 87.103533547252 56.171868904521496, 139.4606450614485 -0.14019917093894207 M39.49129294744309 114.27860282387005 C70.68120025055504 77.48770660107584, 101.3413577137884 43.25612920098277, 137.84939861995755 -0.6171763804995152 M43.92240111051162 112.44009674457601 C74.02932727400712 82.16379124745838, 102.1284437792171 44.668799422794976, 142.54041000762092 -2.0472260236760604 M44.96126801321318 113.58435705141864 C82.81841320442267 70.18335338983795, 121.73875040044541 25.058047009945838, 142.33838685442763 0.09314618278089881 M50.12565543656686 112.48892621508107 C79.19522176306796 80.08919643251645, 105.68262800885611 49.690626757873005, 147.45285303112607 -1.3706839669667943 M49.27217854992935 114.30613133589044 C80.92021403791853 78.00339293505681, 113.2183270840207 41.11655709927534, 147.45668688662838 -0.3066450150855644 M54.771451121204834 113.83177381378252 C90.9805916154464 70.95106078390285, 128.82765794864156 28.582972529271956, 153.92580263916375 1.1391020770245888 M54.73168799375121 114.42584849984038 C75.32692986881474 88.78230758767072, 95.31073710203817 64.8288626518925, 152.91842483118148 0.004932965064952555 M59.41574167162531 113.14018961851609 C98.47210976916595 71.29496912039977, 134.80005599882674 26.284494461703787, 159.92027309797163 0.36197363202487054 M60.014859959300395 113.17905398243231 C83.51874999240296 86.66107261605235, 107.29626912115037 59.97824245047118, 159.2129047492465 0.9844123207873565 M64.347666354066 114.21589015300856 C97.30786467893934 74.58811316523935, 131.61650269442868 35.266585729986005, 163.06643666474952 -0.4172379741302308 M66.3219360077365 114.18634248122112 C101.62181630441799 73.70945473299682, 137.04100155473063 30.886237401817922, 165.25933088044508 0.7794478662454907 M70.0255224257267 112.76558174509564 C103.00840189285114 75.26026408065653, 138.08129650375383 35.30726955774797, 169.60265135573513 1.3414650322860666 M71.03305787868118 113.50943131037066 C105.59552813754311 74.13624977437215, 139.26145348225117 35.8346485398053, 168.56458541093684 0.8602436739942618 M74.01579290284516 115.25113716850413 C103.62089280707309 80.05495316078446, 130.4460771845022 48.628907274953704, 175.81143317812825 0.20807022910949513 M75.86604525829406 112.78258704243584 C99.53393101927807 86.79143119948816, 122.18371235178213 61.18662836309116, 174.87795070534344 0.07562643319752738 M80.42911879262108 111.66441900106973 C107.38583735622564 85.65152006893905, 130.13802351039195 56.93845239163845, 180.9584838981666 1.632731640066794 M82.53111801119674 113.2686988665805 C118.10512955722086 70.0054312504574, 156.62726647875016 27.93574725180534, 180.34888707482446 -0.2155279085898485 M84.85932686129226 114.37745626651923 C120.52198185334507 76.55749686924781, 155.0830089453857 35.65545212330747, 184.72866327305 -1.279406907006262 M86.88867394854887 112.99070523035954 C123.67342116653006 69.65133131890803, 161.7571224402493 24.8321532850607, 185.1817550090016 -0.08822078720396576 M91.81940186605843 114.91726779268835 C117.56050390831115 87.16991017978435, 139.64124084026406 57.64950749793345, 192.1650168190161 -0.9180351383829475 M92.60401105997207 112.78766719793681 C116.85625881000246 85.5493550410325, 138.63867153476846 58.34674159305217, 189.7935929440344 0.08009561991002556 M95.68051432315735 114.81603885330387 C121.93392902724351 87.53619762422437, 146.90492901849967 59.39718115560716, 195.1047480432647 1.6071470237725123 M97.30510528162597 113.44619509186722 C125.72003324213154 79.9035023884988, 152.98457905031597 48.376022781810846, 196.4688394945445 -0.3344082480839745 M102.10799273978874 114.38594452620151 C138.0570183348203 68.75194480435245, 178.9928063548601 25.366397667879554, 201.1182462120335 -0.6833938968131434 M102.23733272813216 113.75652185131463 C122.5816921600356 89.52056442833815, 143.86481372259092 65.75370871138827, 201.51711122169155 0.9294873063688982 M109.00035138219039 115.56932633510803 C132.23572519701182 83.09166317569534, 159.1945963027361 52.83108640306627, 206.94505858252234 0.13579842769581774 M108.4212474606503 113.6439296738339 C142.92370505025212 71.76968071877064, 179.83143375357264 31.120268491309375, 206.92792486509717 -0.9258754025674989 M111.26920347857153 115.46822518808196 C134.80557859217615 86.93687039284075, 157.78572449401213 62.63107885718207, 211.4329181709689 1.7453467710261776 M113.65124468981152 114.97953295381168 C147.6073650954201 74.21146511802328, 182.21304748725166 34.51026881644958, 212.52847511092097 -0.625604802338259 M117.0585841321414 113.42101011818174 C154.93983526239757 70.71070398845353, 196.47173856291056 25.359041975524292, 216.97371598457295 0.35586371101366865 M117.93363368874692 112.93815702313456 C154.06760788572913 73.897098672706, 188.55773190360873 32.667799357797676, 217.6383568237846 -0.7661867037795247 M121.96427323413778 112.07900702413417 C158.4204450088602 72.61629094643037, 193.206342018055 32.10464851719803, 222.44252878957226 1.55812827138503 M123.92471070611614 114.35621689185746 C157.98903418538706 74.58175131912176, 192.29608348611623 34.153921096977996, 223.22734281484767 -0.6840576593364318 M127.81370866676039 112.93603160877497 C164.20454121530474 73.76530743193487, 196.09890415265804 36.702892912642056, 228.63359134316656 1.0979092799760366 M128.9294221690408 113.5425001866442 C166.3453792573447 71.91706559473826, 203.56685007461323 28.123721285766905, 227.5701060737318 -0.3995316048450803 M133.605014071247 113.17856602083093 C171.399976655321 71.84364220074596, 203.06906859348084 30.542885721345016, 235.1993241615936 -0.27385798948657225 M134.05914245118055 114.40959379254973 C154.97825728673283 88.14604581299628, 175.09844350063025 64.5372755168537, 232.40399753659665 0.514626782249394 M138.94297107979736 112.46058221313773 C160.6197160549575 90.77490687355015, 181.27086628219104 64.55705425460775, 237.43024672306262 0.7284611210557017 M138.88639610465697 113.52995721123783 C160.8492725808543 88.43371531632727, 183.40335564342598 64.02351899782406, 237.92770928907328 -0.2560149786663857 M142.9780470836492 113.7537185844222 C184.72383442228522 71.22769637959544, 221.72669300921027 29.718036451137053, 242.4743003807829 1.0018293946613426 M144.6026356281297 114.26734920276347 C164.52684345417072 91.90367194978666, 185.04007355821034 68.76863359793946, 244.23934747929286 -0.4096784307058101 M151.84236746500227 114.12210333752002 C172.0253580023653 88.11412558094663, 192.6833475528541 66.82927507667316, 247.55617127599214 0.13116648005713216 M150.67296369872037 113.83290114379044 C178.40019323257133 81.77136519781108, 206.28510262517102 51.88999944062469, 249.774505230915 -0.6704954388139726 M153.58874336509433 113.57253112115801 C190.81977062685536 74.01291551651408, 224.1303446460809 34.77477319231184, 254.75720354089015 -0.08111816992121135 M155.9939109400886 113.4165436693737 C185.0935143924181 78.00160858907984, 216.38850364751346 43.69681764920911, 255.30492584606134 -0.9777252513270298 M161.62664391612518 113.82928638817184 C190.63801455748597 78.02948208635134, 223.0195804933416 42.904474849555655, 257.95442706671463 1.2350513434530797 M161.54815815435606 113.24308003117703 C181.1464582227911 91.02921579817775, 202.23334608944785 66.2246306842691, 259.0962805733915 -0.3543278581900893 M165.66122400933247 115.18432003728836 C189.98855117163745 89.05123740312986, 213.82241812145725 63.18788495926536, 265.6004707066749 -0.4530496967614397 M165.5623140901823 114.70361273925542 C202.2892511136351 72.50624206272582, 237.57569104581893 33.55713850991769, 264.9068318110366 0.9038189474835292 M171.12929652691602 115.2720727713432 C205.54466442521203 73.7003452147089, 238.2629705918062 38.56085129289578, 265.6944129570561 8.033358759275771 M172.161637674689 113.41161692027262 C199.66208118957505 83.4037401103098, 225.5972345822181 51.24284788026712, 265.17703378770375 5.623474951862491 M178.13836011011358 113.91965173906321 C203.40300287621693 79.05958837667626, 234.79999517172848 46.115862319316534, 265.74652156601996 14.548160343509409 M176.52781578153576 113.3343669592836 C205.02657137366646 81.91341846550128, 232.7311971412103 50.97987512016049, 264.2130221714765 12.998886335719618 M180.90257139112487 111.92165389328412 C203.236537468842 90.50316737149542, 221.4646511205753 69.70970634320929, 265.1566910117759 18.017614713997943 M181.55368546284421 113.84900985795221 C203.8459868580622 90.94113274726539, 222.9738889628393 66.39118348505664, 264.7838015479861 18.270308118441505 M186.68177276118763 111.89034263273263 C214.6792556738142 81.478943004886, 244.55523648479573 49.9001031431831, 264.68223764753304 25.479309653799803 M187.00101171727397 113.87399187633329 C215.6387887696984 79.7848069017037, 244.76474467825642 48.112595495709854, 264.8077905653637 24.044206256914705 M191.21746460250165 113.0304711602445 C210.13662135598378 89.32233324111888, 229.38846903532632 69.25567732753785, 264.65722261452913 29.15878981164184 M192.15520972194668 112.92513189109073 C208.51826964150553 95.49647336184401, 224.62392132604103 78.28192806084317, 263.79089484726876 30.651136386194196 M197.67183305630465 111.98945912454657 C214.66738566800242 96.56712597190358, 229.67572487958583 75.30194617371977, 263.7723650449641 37.99908964035974 M196.98312260052194 113.24704803727947 C216.38063113833454 91.83970067392053, 235.58069023022554 70.56691965522118, 264.82517019582315 35.95652675794379 M204.06372225479643 113.63221597847448 C226.6976410041243 85.11064865291404, 251.91993397880748 55.38154770236682, 266.0140698300754 42.51091003868028 M202.78774365512143 112.86923106656329 C215.87195490923955 100.06137206490172, 227.57275726482462 83.39343523671603, 263.7466003596862 43.492104882218385 M210.20766208921467 111.89131762075502 C222.5245746934805 100.13622111835087, 235.8125389148674 83.40617833128482, 263.44434082307254 50.302151289661964 M209.3659941344047 113.7374709889971 C230.10292509604025 87.95479254669895, 251.94659053242887 62.81247115194648, 265.1337602369893 50.266680465904614 M213.14984044175918 112.54182975422393 C228.84462465450537 97.24709392305184, 238.69391622598093 84.33234673024982, 266.42010375216466 55.15454180136324 M213.66344546549345 112.76993043124477 C225.93428174849083 99.04766758264084, 237.0234127800917 85.45483017198102, 264.74588878836346 55.124024153389044 M218.10713095366765 114.05148452760803 C229.46428858096448 100.86273866492431, 243.6910014703586 86.25387777143975, 263.8125291335895 60.10026684751095 M218.93209702204723 113.98857127836125 C229.1660459945011 103.52294112034123, 239.27598781054414 91.87316503573359, 264.9609619499683 62.100746267226654 M225.90306525713984 114.35550389374296 C232.53915721652902 100.54914486014428, 243.76570608880843 92.28269973459189, 263.7869454745469 66.95150150594075 M225.38509835618768 113.5752280320103 C239.3899828332054 96.0911608135235, 253.73150293448916 78.01357812055073, 265.77435583642546 67.23707974658122 M227.90686074341357 111.70677625135554 C240.81889820348738 97.7287455492039, 255.15687665048583 85.08475448984493, 262.7418670412744 75.15058730037946 M229.3545269665745 114.00303445224685 C240.04687333241867 101.19200775126251, 250.85891808065884 89.80820443620205, 264.9566245088945 73.70830678900766 M232.81333376569802 112.20538938350428 C243.35844344705498 104.38488595256594, 251.39689769457837 94.24049398156544, 266.0889070619815 79.29956513888557 M235.29005150133872 113.84720649595756 C244.43641435209975 103.47371324109056, 251.588637803864 94.02717676280774, 265.05216317800665 80.63554178889264 M240.86222255220247 114.8752591982476 C251.85556103407737 101.88885110390173, 260.83597697828156 91.9927508647637, 264.47210063987734 84.23680405451752 M240.19700467111153 114.14292105752897 C247.3990027580501 104.3822568186695, 256.09313793697163 96.06959154550452, 264.817281116893 86.44361007812269 M244.05751011916468 114.74075846931234 C248.2394299192244 111.0164730044806, 252.1287796850789 104.5982983113012, 263.98722766619966 90.11362994600212 M245.07445616205254 113.74319470951602 C251.4925938484251 106.45798669471185, 258.9916986771357 97.12290551236882, 263.6582745742132 91.21892666675275 M250.9473374737844 112.3562497745342 C253.65102989801937 111.47404219124834, 255.6837869488387 108.39732824067434, 264.96172602314823 95.92385851617512 M251.91387583878338 114.12966664108257 C254.08773304153755 110.83406792545381, 256.8422145484113 107.65604787453958, 265.6300899770888 98.5202791814467 M255.73662315541813 113.104742356382 C257.7863668073371 111.15743455186514, 260.23811875245235 108.81283811338176, 264.7866389176049 104.27432512084852 M255.92764524002493 114.33178841177529 C258.3194555089815 110.21572004293057, 262.27395290261944 108.08432569364508, 264.591887443297 103.725908806621 M261.93268117140394 113.58048846630072 C262.4438285684152 112.63243885365516, 263.24742564227046 111.63407876445699, 264.507440794961 110.28188526665978 M261.53168808556507 113.64324193896418 C262.718437658653 112.2691058321391, 263.64118492103927 111.32598017199683, 264.30440979651496 110.57255927751028" stroke="#82c91e" stroke-width="0.5" fill="none"></path><path d="M0.2221322573883363 0.31961559237726267 C92.99984292520577 -1.478168111553085, 184.27879886151152 0.27735428076394864, 263.101091032273 -0.9636163378737878 M0.3974591028856782 0.6101761945645726 C98.45587489745411 2.3346162289245593, 196.71097595100957 2.355897021552931, 263.363605173176 0.28804558757419935 M263.132211519405 -1.017746789380908 C263.9776561129836 24.270642164722087, 265.07159643061436 45.68246137090028, 264.6343083512036 110.69842095859349 M264.2923318529499 -0.849126243032515 C263.2625216137243 29.711253555677835, 262.6017947982622 60.444461075030276, 263.07257206086047 112.12594980653375 M263.84559523149 112.56294406409219 C190.73908955602744 109.59069509662359, 121.64382773562546 109.36796673649464, 0.8887644270187448 111.9485526218157 M263.4021412337754 111.38324198402182 C164.2996428075349 110.2678184236752, 65.68264966847968 109.54852429456513, -0.07930958366044502 112.1070959266599 M1.4632246028631926 111.31480480916798 C1.4403268871456385 72.26515961326658, 2.2432401356846094 29.13740658350288, 0.2055214773863554 0.7272349167615175 M0.5942258620634675 111.87658766563982 C0.38659359592944376 77.22084259297698, -0.11766387443989523 40.61115522142498, -0.9940165197476745 -0.17142473999410868" stroke="#000000" stroke-width="1" fill="none"></path></g><g><g transform="translate(642.2069204152247 123.66564028202521) rotate(0 27.783840969776293 -0.13301119298475328)"><path d="M-0.9671108331531286 -1.0070271346718072 C7.87385916596388 -0.7686386471824883, 44.97756432770368 0.48546813585507875, 54.141417551307995 0.6199858500289679 M0.7260172501020135 1.0786796742863953 C9.870004621707999 1.0086555771132768, 47.234813789619025 -1.305755748574704, 56.53479277270572 -1.3447020602558792" stroke="#000000" stroke-width="1" fill="none"></path></g><g transform="translate(642.2069204152247 123.66564028202521) rotate(0 27.783840969776293 -0.13301119298475328)"><path d="M29.491902344213557 7.9400184894242045 C41.66616546207692 3.906567177187406, 50.224782626363556 1.0172132107856662, 56.541243509600925 -1.9611813918833674 M31.24993950250162 8.151686212446606 C41.19915853062792 4.07616364241839, 51.41757774833452 0.13551788823545152, 56.240982705938684 -1.8504349718947948" stroke="#000000" stroke-width="1" fill="none"></path></g><g transform="translate(642.2069204152247 123.66564028202521) rotate(0 27.783840969776293 -0.13301119298475328)"><path d="M28.807875971176813 -10.772801405071572 C41.123433124204574 -7.478417358528877, 49.94970966898166 -3.0454487104471752, 56.541243509600925 -1.9611813918833674 M30.565913129464874 -10.56113368204917 C40.672074783668094 -7.220309113192913, 51.16157991217608 -3.7448931119776754, 56.240982705938684 -1.8504349718947948" stroke="#000000" stroke-width="1" fill="none"></path></g></g><g transform="translate(776.4999999999998 11) rotate(0 65 28.5)"><text x="65" y="41" font-family="Virgil, Segoe UI Emoji" font-size="36px" fill="#5c940d" text-anchor="middle" style="white-space: pre;" direction="ltr">Finish :)</text></g><g transform="translate(66.49999999999977 79) rotate(0 70 48)"><text x="70" y="23" font-family="Virgil, Segoe UI Emoji" font-size="20px" fill="#000000" text-anchor="middle" style="white-space: pre;" direction="ltr">olex2.solve</text><text x="70" y="55" font-family="Virgil, Segoe UI Emoji" font-size="20px" fill="#000000" text-anchor="middle" style="white-space: pre;" direction="ltr">ShelXT, ShelXS</text><text x="70" y="87" font-family="Virgil, Segoe UI Emoji" font-size="20px" fill="#000000" text-anchor="middle" style="white-space: pre;" direction="ltr">Superflip</text></g><g transform="translate(426.4999999999998 91) rotate(0 59 32)"><text x="59" y="23" font-family="Virgil, Segoe UI Emoji" font-size="20px" fill="#000000" text-anchor="middle" style="white-space: pre;" direction="ltr">olex2.refine</text><text x="59" y="55" font-family="Virgil, Segoe UI Emoji" font-size="20px" fill="#000000" text-anchor="middle" style="white-space: pre;" direction="ltr">ShelXL</text></g><g><g transform="translate(286.9999999999998 125.5) rotate(0 29.60942715071144 0.339761097789534)"><path d="M-0.5442105028778315 0.8148155841976406 C9.254151247565945 1.1015379223972561, 49.955744237328574 1.1634134206920863, 59.76306480430067 1.1011683974415065 M1.3709402537718414 0.19698982056230285 C10.99292063438644 0.2286091345176099, 49.306391092973456 -0.13221774522215124, 59.21562836293131 -0.4432929426804184" stroke="#000000" stroke-width="1" fill="none"></path></g><g transform="translate(286.9999999999998 125.5) rotate(0 29.60942715071144 0.339761097789534)"><path d="M33.04628297328781 11.434792391634774 C44.06824315789478 5.078916789436421, 53.458518207177235 1.1808685458950468, 58.74115334238857 0.17299043867737063 M31.551248493751693 10.625430703773391 C39.95335971741976 6.49098104919013, 50.346390869723805 2.3291423116295054, 58.58837096832693 -0.7849878909438848" stroke="#000000" stroke-width="1" fill="none"></path></g><g transform="translate(286.9999999999998 125.5) rotate(0 29.60942715071144 0.339761097789534)"><path d="M32.668859393017534 -8.740866164964428 C43.73054546944886 -7.406600614420425, 53.264647030358134 -3.6162193541895826, 58.74115334238857 0.17299043867737063 M31.17382491348142 -9.550227852825811 C39.65694538549981 -7.0136842144753615, 50.17481130281497 -4.502321470947121, 58.58837096832693 -0.7849878909438848" stroke="#000000" stroke-width="1" fill="none"></path></g></g><g transform="translate(747.4999999999998 93) rotate(0 85 32)"><text x="85" y="23" font-family="Virgil, Segoe UI Emoji" font-size="20px" fill="#000000" text-anchor="middle" style="white-space: pre;" direction="ltr">Reports, pictures</text><text x="85" y="55" font-family="Virgil, Segoe UI Emoji" font-size="20px" fill="#000000" text-anchor="middle" style="white-space: pre;" direction="ltr">tables, CIF etc</text></g></svg>